#FIG 3.2  Produced by xfig version 3.2.7a
Landscape
Center
Metric
A4
100.00
Single
-2
1200 2
6 1170 1755 1755 2340
1 3 0 1 0 0 52 -1 20 0.000 1 0.0000 1485 2070 270 270 1485 2070 1755 2070
1 3 0 1 0 7 51 -1 20 0.000 1 0.0000 1440 2025 270 270 1440 2025 1710 2025
4 1 0 50 -1 16 10 0.0000 4 120 195 1440 2070 P1\001
-6
6 2430 1755 3015 2340
1 3 0 1 0 0 52 -1 20 0.000 1 0.0000 2745 2070 270 270 2745 2070 3015 2070
1 3 0 1 0 7 51 -1 20 0.000 1 0.0000 2700 2025 270 270 2700 2025 2970 2025
4 1 0 50 -1 16 10 0.0000 4 120 195 2700 2070 P2\001
-6
6 3780 1755 4365 2340
1 3 0 1 0 0 52 -1 20 0.000 1 0.0000 4095 2070 270 270 4095 2070 4365 2070
1 3 0 1 0 7 51 -1 20 0.000 1 0.0000 4050 2025 270 270 4050 2025 4320 2025
4 1 0 50 -1 16 10 0.0000 4 120 195 4050 2070 P3\001
-6
6 3150 2535 3645 3375
1 3 0 1 1 1 50 -1 20 0.000 1 0.0000 3375 2835 45 45 3375 2835 3420 2835
1 3 0 1 1 1 50 -1 20 0.000 1 0.0000 3375 3015 45 45 3375 3015 3420 3015
1 3 0 1 1 1 50 -1 20 0.000 1 0.0000 3375 3195 45 45 3375 3195 3420 3195
2 2 0 1 0 7 51 -1 20 0.000 0 0 -1 0 0 5
	 3150 2700 3600 2700 3600 3330 3150 3330 3150 2700
2 2 0 1 0 0 52 -1 20 0.000 0 0 -1 0 0 5
	 3195 2745 3645 2745 3645 3375 3195 3375 3195 2745
4 1 0 50 -1 16 10 0.0000 4 120 210 3375 2655 R4\001
-6
6 1800 735 2295 1305
1 3 0 1 1 1 50 -1 20 0.000 1 0.0000 2025 1080 45 45 2025 1080 2070 1080
2 2 0 1 0 7 51 -1 20 0.000 0 0 -1 0 0 5
	 1800 900 2250 900 2250 1260 1800 1260 1800 900
2 2 0 1 0 0 52 -1 20 0.000 0 0 -1 0 0 5
	 1845 945 2295 945 2295 1305 1845 1305 1845 945
4 1 0 50 -1 16 10 0.0000 4 120 210 2025 855 R1\001
-6
6 3150 735 3645 1395
1 3 0 1 1 1 50 -1 20 0.000 1 0.0000 3375 1035 45 45 3375 1035 3420 1035
1 3 0 1 1 1 50 -1 20 0.000 1 0.0000 3375 1215 45 45 3375 1215 3420 1215
2 2 0 1 0 7 51 -1 20 0.000 0 0 -1 0 0 5
	 3150 900 3600 900 3600 1350 3150 1350 3150 900
2 2 0 1 0 0 52 -1 20 0.000 0 0 -1 0 0 5
	 3195 945 3645 945 3645 1395 3195 1395 3195 945
4 1 0 50 -1 16 10 0.0000 4 120 210 3375 855 R3\001
-6
6 1800 2535 2295 3195
1 3 0 1 1 1 50 -1 20 0.000 1 0.0000 2025 2835 45 45 2025 2835 2070 2835
1 3 0 1 1 1 50 -1 20 0.000 1 0.0000 2025 3015 45 45 2025 3015 2070 3015
2 2 0 1 0 7 51 -1 20 0.000 0 0 -1 0 0 5
	 1800 2700 2250 2700 2250 3150 1800 3150 1800 2700
2 2 0 1 0 0 52 -1 20 0.000 0 0 -1 0 0 5
	 1845 2745 2295 2745 2295 3195 1845 3195 1845 2745
4 1 0 50 -1 16 10 0.0000 4 120 210 2025 2655 R2\001
-6
2 1 0 2 18 7 50 -1 -1 0.000 0 0 7 1 0 2
	1 1 1.00 60.00 120.00
	 2025 1080 1485 1710
2 1 0 2 18 7 50 -1 -1 0.000 0 0 7 1 0 2
	1 1 1.00 60.00 120.00
	 2025 2835 2475 2250
2 1 0 2 18 7 50 -1 -1 0.000 0 0 7 0 1 2
	1 1 1.00 60.00 120.00
	 2205 1350 2520 1800
2 1 0 2 18 7 50 -1 -1 0.000 0 0 7 0 1 2
	1 1 1.00 60.00 120.00
	 2880 1800 3375 1215
2 1 0 2 18 7 50 -1 -1 0.000 0 0 7 1 0 2
	1 1 1.00 60.00 120.00
	 3375 1035 3915 1755
2 1 0 2 18 7 50 -1 -1 0.000 0 0 7 1 0 2
	1 1 1.00 60.00 120.00
	 3375 2835 3870 2250
2 1 0 2 18 7 50 -1 -1 0.000 0 0 7 1 0 2
	1 1 1.00 60.00 120.00
	 2025 3015 3735 2070
2 1 0 2 18 7 50 -1 -1 0.000 0 0 7 0 1 2
	1 1 1.00 60.00 120.00
	 1845 2655 1575 2295
