#FIG 3.2  Produced by xfig version 3.2.5c
Landscape
Center
Metric
A4      
100.00
Single
-2
1200 2
1 1 0 1 0 11 55 -1 36 0.000 1 0.0000 1800 900 1800 360 1800 900 3600 1260
1 1 0 1 0 7 61 -1 -1 0.000 1 0.0000 1800 1440 1035 180 1800 1440 2835 1440
1 1 0 1 0 7 61 -1 -1 0.000 1 0.0000 1800 1440 1305 270 1800 1440 3105 1710
1 1 0 1 0 11 75 -1 36 0.000 1 0.0000 1800 1980 1800 360 1800 1980 3600 1980
1 1 0 1 0 7 73 -1 -1 0.000 1 0.0000 1800 1980 1305 270 1800 1980 3105 2250
1 1 0 1 0 7 73 -1 -1 0.000 1 0.0000 1800 1980 1035 180 1800 1980 2835 1980
1 1 0 1 0 20 62 -1 36 0.000 1 0.0000 1800 1440 180 45 1800 1440 1980 1440
1 1 0 1 0 20 52 -1 36 0.000 1 0.0000 1800 900 180 45 1800 900 1980 900
1 1 0 1 0 20 50 -1 36 0.000 1 0.0000 1801 451 180 45 1801 451 1981 451
1 1 0 1 0 1 41 -1 36 0.000 1 0.0000 3780 630 90 45 3780 630 3870 630
1 1 0 1 0 20 72 -1 36 0.000 1 0.0000 1800 1980 180 45 1800 1980 1980 1980
1 1 0 1 0 20 82 -1 36 0.000 1 0.0000 1800 2430 180 45 1800 2430 1980 2430
1 1 0 1 0 1 43 -1 36 0.000 1 0.0000 3780 2610 90 45 3780 2610 3870 2655
1 1 0 1 0 7 54 -1 -1 0.000 1 0.0000 1800 900 1305 270 1800 900 3105 1170
1 1 0 1 0 11 53 -1 36 0.000 1 0.0000 1800 900 1035 180 1800 900 2835 1080
1 1 0 1 0 11 65 -1 36 0.000 1 0.0000 1800 1440 1800 360 1800 1440 3600 1440
2 2 0 0 0 20 61 -1 36 0.000 0 0 -1 0 0 5
	 1620 1440 1980 1440 1980 1125 1620 1125 1620 1440
2 1 0 1 0 20 50 -1 36 0.000 0 0 -1 0 0 2
	 1620 900 1620 450
2 1 0 1 0 20 50 -1 36 0.000 0 0 -1 0 0 2
	 1980 900 1980 450
2 1 0 1 0 20 60 -1 36 0.000 0 0 -1 0 0 2
	 1620 1440 1620 1170
2 1 0 1 0 20 60 -1 36 0.000 0 0 -1 0 0 2
	 1980 1440 1980 1170
2 2 0 0 0 20 51 -1 36 0.000 0 0 -1 0 0 5
	 1620 900 1980 900 1980 450 1620 450 1620 900
2 1 0 1 0 7 41 -1 -1 0.000 0 0 -1 0 0 2
	 3690 2610 3690 630
2 1 0 1 0 7 41 -1 -1 0.000 0 0 -1 0 0 2
	 3870 2610 3870 630
2 3 0 1 0 6 58 -1 36 0.000 2 0 7 0 0 4
	 3825 1620 2745 1170 3735 1665 3825 1620
2 3 0 1 0 6 68 -1 36 0.000 2 0 7 0 0 4
	 3825 2142 2745 1692 3735 2187 3825 2142
2 1 0 1 0 20 70 -1 36 0.000 0 0 -1 0 0 2
	 1620 1980 1620 1710
2 1 0 1 0 20 70 -1 36 0.000 0 0 -1 0 0 2
	 1980 1980 1980 1710
2 2 0 0 0 20 71 -1 36 0.000 0 0 -1 0 0 5
	 1620 1980 1980 1980 1980 1665 1620 1665 1620 1980
2 1 0 1 0 20 80 -1 36 0.000 0 0 -1 0 0 2
	 1620 2430 1620 2160
2 1 0 1 0 20 80 -1 36 0.000 0 0 -1 0 0 2
	 1980 2430 1980 2160
2 2 0 0 0 20 81 -1 36 0.000 0 0 -1 0 0 5
	 1620 2430 1980 2430 1980 2115 1620 2115 1620 2430
2 2 0 0 0 1 42 -1 36 0.000 0 0 7 0 0 5
	 3690 630 3870 630 3870 2610 3690 2610 3690 630
2 1 0 1 0 7 30 -1 -1 0.000 0 0 -1 1 0 2
	1 1 1.00 60.00 120.00
	 1305 315 855 765
2 1 1 1 0 7 50 -1 -1 4.000 0 0 -1 0 0 2
	 495 450 495 900
2 1 1 1 0 7 50 -1 -1 4.000 0 0 -1 0 0 2
	 765 450 765 855
2 1 1 1 0 7 60 -1 -1 4.000 0 0 -1 0 0 2
	 765 990 765 1440
2 1 1 1 0 7 60 -1 -1 4.000 0 0 -1 0 0 2
	 495 990 495 1440
2 1 1 1 0 7 70 -1 -1 4.000 0 0 -1 0 0 2
	 495 1575 495 1980
2 1 1 1 0 7 70 -1 -1 4.000 0 0 -1 0 0 2
	 765 1665 765 1980
2 1 1 1 0 7 80 -1 -1 4.000 0 0 -1 0 0 2
	 495 2115 495 2475
2 1 1 1 0 7 80 -1 -1 4.000 0 0 -1 0 0 2
	 765 2115 765 2475
2 3 0 1 0 6 48 -1 36 0.000 2 0 7 0 0 4
	 3825 1080 2745 630 3735 1125 3825 1080
2 3 0 1 0 6 48 -1 36 0.000 2 0 -1 0 0 4
	 2745 630 2790 720 2835 675 2745 630
2 1 0 1 0 7 30 -1 -1 0.000 0 0 -1 1 0 2
	1 1 1.00 60.00 120.00
	 3510 315 3240 810
2 1 0 1 0 7 54 -1 -1 0.000 0 0 -1 0 0 2
	 1800 900 2790 1080
2 1 0 1 0 7 54 -1 -1 0.000 0 0 -1 0 0 2
	 1800 900 2115 1170
2 1 0 1 0 7 30 -1 -1 0.000 0 0 -1 1 0 2
	1 1 1.00 60.00 120.00
	 2160 315 2340 1080
3 0 0 1 0 7 30 -1 -1 0.000 0 1 0 2
	1 1 1.00 60.00 120.00
	 45 2385 270 2205
	 0.000 0.000
3 0 0 1 0 7 30 -1 -1 0.000 0 1 0 2
	1 1 1.00 60.00 120.00
	 45 2385 225 1665
	 0.000 0.000
3 0 0 1 0 7 30 -1 -1 0.000 0 1 0 2
	1 1 1.00 60.00 120.00
	 45 2385 90 1080
	 0.000 0.000
3 0 0 1 0 7 41 -1 -1 0.000 0 1 1 3
	1 1 1.00 60.00 120.00
	1 1 1.00 60.00 120.00
	 3105 495 2700 540 2340 810
	 0.000 1.000 0.000
3 0 0 1 0 7 41 -1 -1 0.000 0 1 0 5
	1 1 1.00 60.00 120.00
	 1440 2520 1575 2565 1800 2610 2025 2565 2160 2520
	 0.000 1.000 1.000 1.000 0.000
4 2 0 30 -1 16 7 0.0000 4 90 645 3870 2790 axe des bras\001
4 0 0 30 -1 16 7 0.0000 4 120 420 -135 2520 plateaux\001
4 1 0 80 -1 16 7 0.0000 4 120 405 630 405 cylindre\001
4 1 0 30 -1 16 7 0.0000 4 120 240 1305 270 piste\001
4 2 0 30 -1 16 7 0.0000 4 90 1080 3870 270 bras et t\352te de lecture\001
4 1 0 30 -1 16 7 0.0000 4 75 375 2160 270 secteur\001
4 1 0 30 -1 16 7 0.0000 4 120 1395 1800 2790 axe de rotation des plateaux\001
